<?xml version="1.0" encoding="utf-8"?>
<!-- Generator: Adobe Illustrator 22.1.0, SVG Export Plug-In . SVG Version: 6.00 Build 0)  -->
<svg version="1.1" id="Capa_1" xmlns="http://www.w3.org/2000/svg" xmlns:xlink="http://www.w3.org/1999/xlink" x="0px" y="0px"
	 viewBox="0 0 160 32" style="enable-background:new 0 0 160 32;" xml:space="preserve">
<style type="text/css">
	.st0{fill:#9EB0CD;}
	.st1{fill:#FFFFFF;}
</style>
<g>
	<path class="st0" d="M11,1.2c-5.4,0.2-5.4,9.4,0,9.7c1.1,0,2.1,0.1,3.2,0.1c0.2,0.9,0.7,1.7,1.3,2.3c-3.8,0.4-7.6,0.9-11.3,1.3
		c-4,0.5-5,5.3-3.1,8c-1.5,2.9-0.4,7.6,3.4,7.3c14.3-0.8,28.7-1.4,43-1.7c35.7,3,71.6,4.8,107.4,2.8c5.4-0.3,5.3-9.3,0-9.7
		c-2.3-0.2-4.6-0.3-6.9-0.5c1.5-2.6,1.1-7-2.1-7.6c-1-0.2-2-0.3-3-0.5c0.2-2.6-1.1-5.5-4-5.8c-1-0.1-2-0.2-3-0.3
		c-0.6-1.3-1.8-2.2-3.4-2.4C92.2,0.8,51.6-0.3,11,1.2z M77.7,18.4c-3,0-6.1,0-9.1,0c1.8-0.1,3.6-0.2,5.5-0.2
		C75.3,18.3,76.5,18.4,77.7,18.4z"/>
	<g>
		<path class="st1" d="M44.1,21.2l1.9-9.7l3.1,7l3.2-7l1.7,9.7h-1.4l-0.9-5.5l-2.7,5.9l-2.6-5.9l-1,5.5H44.1z"/>
		<path class="st1" d="M57.3,12.2v9H56v-9H57.3z"/>
		<path class="st1" d="M69.9,12.7v1.6c-0.8-0.7-1.6-1-2.4-1c-0.9,0-1.7,0.3-2.3,1c-0.6,0.7-1,1.5-1,2.4c0,0.9,0.3,1.8,1,2.4
			s1.4,1,2.4,1c0.5,0,0.9-0.1,1.2-0.2c0.2-0.1,0.4-0.2,0.6-0.3s0.4-0.3,0.6-0.5v1.6c-0.8,0.4-1.6,0.7-2.5,0.7
			c-1.3,0-2.4-0.5-3.3-1.4c-0.9-0.9-1.4-2-1.4-3.3c0-1.2,0.4-2.2,1.1-3.1c0.9-1.1,2.2-1.7,3.6-1.7C68.3,12,69.1,12.2,69.9,12.7z"/>
		<path class="st1" d="M73,12.2v5.4c0,0.8,0.1,1.3,0.4,1.7c0.4,0.5,0.9,0.8,1.6,0.8c0.7,0,1.2-0.3,1.6-0.8c0.3-0.3,0.4-0.9,0.4-1.7
			v-5.4h1.4V18c0,1-0.3,1.7-0.9,2.4c-0.7,0.7-1.5,1-2.5,1s-1.8-0.3-2.5-1c-0.6-0.6-0.9-1.4-0.9-2.4v-5.8H73z"/>
		<path class="st1" d="M85.5,13.5h-3.6v2.2h3.5v1.3h-3.5v3h3.6v1.3h-5v-9h5V13.5z"/>
		<path class="st1" d="M87.3,21.2v-9.7l6.6,6.9v-6.3h1.4v9.6l-6.6-6.9v6.3H87.3z"/>
		<path class="st1" d="M99.9,13.5v7.8h-1.4v-7.8h-2.1v-1.3h5.5v1.3H99.9z"/>
		<path class="st1" d="M108,19h-3.9l-1,2.2h-1.5l4.5-9.6l4.3,9.6h-1.5L108,19z M107.4,17.8l-1.3-3.1l-1.4,3.1H107.4z"/>
	</g>
</g>
</svg>
